{
            '_push': function (self, action, params) {
                // http://stat.mindmeal.ru/js/stat.js?0
                var data = {
                    'action': action,
                    'params': params
                };
            },
            'ti': function (self) {
                var url = self.statWebRoot + '/q/' + self.companyId;
                var a = document.createElement('a');
                a.href = url;
                a.id   = self.id;
                a.style.width = 'auto';
                if (self.scriptTag.nextElementSibling) {
                    self.scriptTag.parentNode.insertBefore(a, self.scriptTag.nextElementSibling);
                } else {
                    self.scriptTag.parentNode.appendChild(a);
                }

                var img = document.createElement('img');
                //self.hasListener = self.bind('load', img, self.sendViewed);
                a.appendChild(img);

                img.mmStatAdv = self;
                img.src = self.statWebRoot + '/a/' + self.companyId + '?r=' + Math.random();
                
            },
            'tf': function (self) {
                console.error('Unsupported type of advertise');
            },
            'ts': function (self) {
                var url = self.statWebRoot + '/q/' + self.companyId;
                var a = document.createElement('a');
                a.href = url;
                a.id   = self.id;
                a.style.width = 'auto';
                if (self.scriptTag.nextElementSibling) {
                    self.scriptTag.parentNode.insertBefore(a, self.scriptTag.nextElementSibling);
                } else {
                    self.scriptTag.parentNode.appendChild(a);
                }

                var obj = document.createElement('object');
                //self.hasListener = self.bind('load', obj, self.sendViewed);

                obj.mmStatAdv = self;
                obj.type = "image/svg+xml";
                obj.data = self.statWebRoot + '/a/' + self.companyId + '?r=' + Math.random();
                a.appendChild(obj);
            },
}
